<?xml version="1.0"?>
<!DOCTYPE svg PUBLIC '-//W3C//DTD SVG 1.0//EN'
          'http://www.w3.org/TR/2001/REC-SVG-20010904/DTD/svg10.dtd'>
<svg xmlns:xlink="http://www.w3.org/1999/xlink" style="fill-opacity:1; color-rendering:auto; color-interpolation:auto; text-rendering:auto; stroke:black; stroke-linecap:square; stroke-miterlimit:10; shape-rendering:auto; stroke-opacity:1; fill:black; stroke-dasharray:none; font-weight:normal; stroke-width:1; font-family:'Dialog'; font-style:normal; stroke-linejoin:miter; font-size:12px; stroke-dashoffset:0; image-rendering:auto;" width="1152" height="648" xmlns="http://www.w3.org/2000/svg"
><!--Generated by the Batik Graphics2D SVG Generator--><defs id="genericDefs"
  /><g
  ><defs id="defs1"
    ><clipPath clipPathUnits="userSpaceOnUse" id="clipPath1"
      ><path d="M0 0 L1152 0 L1152 648 L0 648 L0 0 Z"
      /></clipPath
      ><font horiz-adv-x="60.009766" id="font1"
      ><font-face ascent="92.822266" descent="23.583984" units-per-em="100" style="font-style:normal; font-family:SansSerif; font-weight:normal;"
        /><missing-glyph horiz-adv-x="60.009766" d="M4.9844 -17.6719 L4.9844 70.5156 L54.9844 70.5156 L54.9844 -17.6719 L4.9844 -17.6719 ZM10.5938 -12.1094 L49.4219 -12.1094 L49.4219 64.8906 L10.5938 64.8906 L10.5938 -12.1094 Z"
        /><glyph unicode="1" horiz-adv-x="63.623047" d="M12.4062 8.2969 L28.5156 8.2969 L28.5156 63.9219 L10.9844 60.4062 L10.9844 69.3906 L28.4219 72.9062 L38.2812 72.9062 L38.2812 8.2969 L54.3906 8.2969 L54.3906 0 L12.4062 0 L12.4062 8.2969 Z"
        /><glyph unicode="0" horiz-adv-x="63.623047" d="M31.7812 66.4062 Q24.1719 66.4062 20.3359 58.9141 Q16.5 51.4219 16.5 36.375 Q16.5 21.3906 20.3359 13.8906 Q24.1719 6.3906 31.7812 6.3906 Q39.4531 6.3906 43.2891 13.8906 Q47.125 21.3906 47.125 36.375 Q47.125 51.4219 43.2891 58.9141 Q39.4531 66.4062 31.7812 66.4062 ZM31.7812 74.2188 Q44.0469 74.2188 50.5156 64.5234 Q56.9844 54.8281 56.9844 36.375 Q56.9844 17.9688 50.5156 8.2734 Q44.0469 -1.4219 31.7812 -1.4219 Q19.5312 -1.4219 13.0625 8.2734 Q6.5938 17.9688 6.5938 36.375 Q6.5938 54.8281 13.0625 64.5234 Q19.5312 74.2188 31.7812 74.2188 Z"
        /><glyph unicode="2" horiz-adv-x="63.623047" d="M19.1875 8.2969 L53.6094 8.2969 L53.6094 0 L7.3281 0 L7.3281 8.2969 Q12.9375 14.1094 22.6328 23.8984 Q32.3281 33.6875 34.8125 36.5312 Q39.5469 41.8438 41.4297 45.5312 Q43.3125 49.2188 43.3125 52.7812 Q43.3125 58.5938 39.2344 62.2578 Q35.1562 65.9219 28.6094 65.9219 Q23.9688 65.9219 18.8203 64.3125 Q13.6719 62.7031 7.8125 59.4219 L7.8125 69.3906 Q13.7656 71.7812 18.9453 73 Q24.125 74.2188 28.4219 74.2188 Q39.75 74.2188 46.4844 68.5547 Q53.2188 62.8906 53.2188 53.4219 Q53.2188 48.9219 51.5391 44.8984 Q49.8594 40.875 45.4062 35.4062 Q44.1875 33.9844 37.6484 27.2188 Q31.1094 20.4531 19.1875 8.2969 Z"
        /><glyph unicode="4" horiz-adv-x="63.623047" d="M37.7969 64.3125 L12.8906 25.3906 L37.7969 25.3906 L37.7969 64.3125 ZM35.2031 72.9062 L47.6094 72.9062 L47.6094 25.3906 L58.0156 25.3906 L58.0156 17.1875 L47.6094 17.1875 L47.6094 0 L37.7969 0 L37.7969 17.1875 L4.8906 17.1875 L4.8906 26.7031 L35.2031 72.9062 Z"
        /><glyph unicode="6" horiz-adv-x="63.623047" d="M33.0156 40.375 Q26.375 40.375 22.4922 35.8359 Q18.6094 31.2969 18.6094 23.3906 Q18.6094 15.5312 22.4922 10.9609 Q26.375 6.3906 33.0156 6.3906 Q39.6562 6.3906 43.5312 10.9609 Q47.4062 15.5312 47.4062 23.3906 Q47.4062 31.2969 43.5312 35.8359 Q39.6562 40.375 33.0156 40.375 ZM52.5938 71.2969 L52.5938 62.3125 Q48.875 64.0625 45.0938 64.9922 Q41.3125 65.9219 37.5938 65.9219 Q27.8281 65.9219 22.6797 59.3281 Q17.5312 52.7344 16.7969 39.4062 Q19.6719 43.6562 24.0234 45.9219 Q28.375 48.1875 33.5938 48.1875 Q44.5781 48.1875 50.9531 41.5234 Q57.3281 34.8594 57.3281 23.3906 Q57.3281 12.1562 50.6875 5.3672 Q44.0469 -1.4219 33.0156 -1.4219 Q20.3594 -1.4219 13.6719 8.2734 Q6.9844 17.9688 6.9844 36.375 Q6.9844 53.6562 15.1875 63.9375 Q23.3906 74.2188 37.2031 74.2188 Q40.9219 74.2188 44.7031 73.4844 Q48.4844 72.75 52.5938 71.2969 Z"
        /><glyph unicode="8" horiz-adv-x="63.623047" d="M31.7812 34.625 Q24.75 34.625 20.7266 30.8594 Q16.7031 27.0938 16.7031 20.5156 Q16.7031 13.9219 20.7266 10.1562 Q24.75 6.3906 31.7812 6.3906 Q38.8125 6.3906 42.8672 10.1797 Q46.9219 13.9688 46.9219 20.5156 Q46.9219 27.0938 42.8984 30.8594 Q38.875 34.625 31.7812 34.625 ZM21.9219 38.8125 Q15.5781 40.375 12.0391 44.7266 Q8.5 49.0781 8.5 55.3281 Q8.5 64.0625 14.7266 69.1406 Q20.9531 74.2188 31.7812 74.2188 Q42.6719 74.2188 48.875 69.1406 Q55.0781 64.0625 55.0781 55.3281 Q55.0781 49.0781 51.5391 44.7266 Q48 40.375 41.7031 38.8125 Q48.8281 37.1562 52.8047 32.3203 Q56.7812 27.4844 56.7812 20.5156 Q56.7812 9.9062 50.3125 4.2422 Q43.8438 -1.4219 31.7812 -1.4219 Q19.7344 -1.4219 13.2578 4.2422 Q6.7812 9.9062 6.7812 20.5156 Q6.7812 27.4844 10.7891 32.3203 Q14.7969 37.1562 21.9219 38.8125 ZM18.3125 54.3906 Q18.3125 48.7344 21.8516 45.5625 Q25.3906 42.3906 31.7812 42.3906 Q38.1406 42.3906 41.7266 45.5625 Q45.3125 48.7344 45.3125 54.3906 Q45.3125 60.0625 41.7266 63.2344 Q38.1406 66.4062 31.7812 66.4062 Q25.3906 66.4062 21.8516 63.2344 Q18.3125 60.0625 18.3125 54.3906 Z"
        /><glyph unicode="r" horiz-adv-x="41.11328" d="M41.1094 46.2969 Q39.5938 47.1719 37.8125 47.5859 Q36.0312 48 33.8906 48 Q26.2656 48 22.1875 43.0469 Q18.1094 38.0938 18.1094 28.8125 L18.1094 0 L9.0781 0 L9.0781 54.6875 L18.1094 54.6875 L18.1094 46.1875 Q20.9531 51.1719 25.4922 53.5859 Q30.0312 56 36.5312 56 Q37.4531 56 38.5781 55.8828 Q39.7031 55.7656 41.0625 55.5156 L41.1094 46.2969 Z"
        /><glyph unicode="a" horiz-adv-x="61.279297" d="M34.2812 27.4844 Q23.3906 27.4844 19.1875 25 Q14.9844 22.5156 14.9844 16.5 Q14.9844 11.7188 18.1406 8.9141 Q21.2969 6.1094 26.7031 6.1094 Q34.1875 6.1094 38.7031 11.4062 Q43.2188 16.7031 43.2188 25.4844 L43.2188 27.4844 L34.2812 27.4844 ZM52.2031 31.2031 L52.2031 0 L43.2188 0 L43.2188 8.2969 Q40.1406 3.3281 35.5469 0.9531 Q30.9531 -1.4219 24.3125 -1.4219 Q15.9219 -1.4219 10.9609 3.2969 Q6 8.0156 6 15.9219 Q6 25.1406 12.1797 29.8281 Q18.3594 34.5156 30.6094 34.5156 L43.2188 34.5156 L43.2188 35.4062 Q43.2188 41.6094 39.1406 45 Q35.0625 48.3906 27.6875 48.3906 Q23 48.3906 18.5547 47.2656 Q14.1094 46.1406 10.0156 43.8906 L10.0156 52.2031 Q14.9375 54.1094 19.5781 55.0547 Q24.2188 56 28.6094 56 Q40.4844 56 46.3438 49.8516 Q52.2031 43.7031 52.2031 31.2031 Z"
        /><glyph unicode="y" horiz-adv-x="59.179688" d="M32.1719 -5.0781 Q28.375 -14.8438 24.7578 -17.8203 Q21.1406 -20.7969 15.0938 -20.7969 L7.9062 -20.7969 L7.9062 -13.2812 L13.1875 -13.2812 Q16.8906 -13.2812 18.9453 -11.5234 Q21 -9.7656 23.4844 -3.2188 L25.0938 0.875 L2.9844 54.6875 L12.5 54.6875 L29.5938 11.9219 L46.6875 54.6875 L56.2031 54.6875 L32.1719 -5.0781 Z"
        /><glyph unicode=" " horiz-adv-x="31.78711" d=""
        /><glyph unicode="n" horiz-adv-x="63.378906" d="M54.8906 33.0156 L54.8906 0 L45.9062 0 L45.9062 32.7188 Q45.9062 40.4844 42.875 44.3359 Q39.8438 48.1875 33.7969 48.1875 Q26.5156 48.1875 22.3125 43.5547 Q18.1094 38.9219 18.1094 30.9062 L18.1094 0 L9.0781 0 L9.0781 54.6875 L18.1094 54.6875 L18.1094 46.1875 Q21.3438 51.125 25.7109 53.5625 Q30.0781 56 35.7969 56 Q45.2188 56 50.0547 50.1719 Q54.8906 44.3438 54.8906 33.0156 Z"
        /><glyph unicode="o" horiz-adv-x="61.18164" d="M30.6094 48.3906 Q23.3906 48.3906 19.1875 42.75 Q14.9844 37.1094 14.9844 27.2969 Q14.9844 17.4844 19.1641 11.8438 Q23.3438 6.2031 30.6094 6.2031 Q37.7969 6.2031 41.9922 11.8672 Q46.1875 17.5312 46.1875 27.2969 Q46.1875 37.0156 41.9922 42.7031 Q37.7969 48.3906 30.6094 48.3906 ZM30.6094 56 Q42.3281 56 49.0234 48.3828 Q55.7188 40.7656 55.7188 27.2969 Q55.7188 13.875 49.0234 6.2266 Q42.3281 -1.4219 30.6094 -1.4219 Q18.8438 -1.4219 12.1797 6.2266 Q5.5156 13.875 5.5156 27.2969 Q5.5156 40.7656 12.1797 48.3828 Q18.8438 56 30.6094 56 Z"
        /><glyph unicode="i" horiz-adv-x="27.783203" d="M9.4219 54.6875 L18.4062 54.6875 L18.4062 0 L9.4219 0 L9.4219 54.6875 ZM9.4219 75.9844 L18.4062 75.9844 L18.4062 64.5938 L9.4219 64.5938 L9.4219 75.9844 Z"
        /><glyph unicode="t" horiz-adv-x="39.208984" d="M18.3125 70.2188 L18.3125 54.6875 L36.8125 54.6875 L36.8125 47.7031 L18.3125 47.7031 L18.3125 18.0156 Q18.3125 11.3281 20.1406 9.4219 Q21.9688 7.5156 27.5938 7.5156 L36.8125 7.5156 L36.8125 0 L27.5938 0 Q17.1875 0 13.2344 3.8828 Q9.2812 7.7656 9.2812 18.0156 L9.2812 47.7031 L2.6875 47.7031 L2.6875 54.6875 L9.2812 54.6875 L9.2812 70.2188 L18.3125 70.2188 Z"
        /><glyph unicode="c" horiz-adv-x="54.98047" d="M48.7812 52.5938 L48.7812 44.1875 Q44.9688 46.2969 41.1406 47.3438 Q37.3125 48.3906 33.4062 48.3906 Q24.6562 48.3906 19.8203 42.8516 Q14.9844 37.3125 14.9844 27.2969 Q14.9844 17.2812 19.8203 11.7422 Q24.6562 6.2031 33.4062 6.2031 Q37.3125 6.2031 41.1406 7.25 Q44.9688 8.2969 48.7812 10.4062 L48.7812 2.0938 Q45.0156 0.3438 40.9922 -0.5391 Q36.9688 -1.4219 32.4219 -1.4219 Q20.0625 -1.4219 12.7891 6.3438 Q5.5156 14.1094 5.5156 27.2969 Q5.5156 40.6719 12.8672 48.3359 Q20.2188 56 33.0156 56 Q37.1562 56 41.1094 55.1484 Q45.0625 54.2969 48.7812 52.5938 Z"
        /><glyph unicode="l" horiz-adv-x="27.783203" d="M9.4219 75.9844 L18.4062 75.9844 L18.4062 0 L9.4219 0 L9.4219 75.9844 Z"
        /><glyph unicode="e" horiz-adv-x="61.523438" d="M56.2031 29.5938 L56.2031 25.2031 L14.8906 25.2031 Q15.4844 15.9219 20.4844 11.0625 Q25.4844 6.2031 34.4219 6.2031 Q39.5938 6.2031 44.4531 7.4688 Q49.3125 8.7344 54.1094 11.2812 L54.1094 2.7812 Q49.2656 0.7344 44.1875 -0.3438 Q39.1094 -1.4219 33.8906 -1.4219 Q20.7969 -1.4219 13.1562 6.1953 Q5.5156 13.8125 5.5156 26.8125 Q5.5156 40.2344 12.7656 48.1172 Q20.0156 56 32.3281 56 Q43.3594 56 49.7812 48.8984 Q56.2031 41.7969 56.2031 29.5938 ZM47.2188 32.2344 Q47.125 39.5938 43.0938 43.9922 Q39.0625 48.3906 32.4219 48.3906 Q24.9062 48.3906 20.3906 44.1406 Q15.875 39.8906 15.1875 32.1719 L47.2188 32.2344 Z"
        /><glyph unicode="-" horiz-adv-x="36.083984" d="M4.8906 31.3906 L31.2031 31.3906 L31.2031 23.3906 L4.8906 23.3906 L4.8906 31.3906 Z"
        /><glyph unicode="f" horiz-adv-x="35.20508" d="M37.1094 75.9844 L37.1094 68.5 L28.5156 68.5 Q23.6875 68.5 21.8047 66.5469 Q19.9219 64.5938 19.9219 59.5156 L19.9219 54.6875 L34.7188 54.6875 L34.7188 47.7031 L19.9219 47.7031 L19.9219 0 L10.8906 0 L10.8906 47.7031 L2.2969 47.7031 L2.2969 54.6875 L10.8906 54.6875 L10.8906 58.5 Q10.8906 67.625 15.1406 71.8047 Q19.3906 75.9844 28.6094 75.9844 L37.1094 75.9844 Z"
        /><glyph unicode="D" horiz-adv-x="77.00195" d="M19.6719 64.7969 L19.6719 8.1094 L31.5938 8.1094 Q46.6875 8.1094 53.6875 14.9453 Q60.6875 21.7812 60.6875 36.5312 Q60.6875 51.1719 53.6875 57.9844 Q46.6875 64.7969 31.5938 64.7969 L19.6719 64.7969 ZM9.8125 72.9062 L30.0781 72.9062 Q51.2656 72.9062 61.1797 64.0938 Q71.0938 55.2812 71.0938 36.5312 Q71.0938 17.6719 61.1328 8.8359 Q51.1719 0 30.0781 0 L9.8125 0 L9.8125 72.9062 Z"
        /><glyph unicode="u" horiz-adv-x="63.378906" d="M8.5 21.5781 L8.5 54.6875 L17.4844 54.6875 L17.4844 21.9219 Q17.4844 14.1562 20.5078 10.2734 Q23.5312 6.3906 29.5938 6.3906 Q36.8594 6.3906 41.0859 11.0312 Q45.3125 15.6719 45.3125 23.6875 L45.3125 54.6875 L54.2969 54.6875 L54.2969 0 L45.3125 0 L45.3125 8.4062 Q42.0469 3.4219 37.7266 1 Q33.4062 -1.4219 27.6875 -1.4219 Q18.2656 -1.4219 13.3828 4.4375 Q8.5 10.2969 8.5 21.5781 Z"
        /><glyph unicode="s" horiz-adv-x="52.09961" d="M44.2812 53.0781 L44.2812 44.5781 Q40.4844 46.5312 36.3828 47.5078 Q32.2812 48.4844 27.875 48.4844 Q21.1875 48.4844 17.8438 46.4375 Q14.5 44.3906 14.5 40.2812 Q14.5 37.1562 16.8906 35.375 Q19.2812 33.5938 26.5156 31.9844 L29.5938 31.2969 Q39.1562 29.25 43.1875 25.5156 Q47.2188 21.7812 47.2188 15.0938 Q47.2188 7.4688 41.1875 3.0234 Q35.1562 -1.4219 24.6094 -1.4219 Q20.2188 -1.4219 15.4531 -0.5625 Q10.6875 0.2969 5.4219 2 L5.4219 11.2812 Q10.4062 8.6875 15.2344 7.3984 Q20.0625 6.1094 24.8125 6.1094 Q31.1562 6.1094 34.5703 8.2812 Q37.9844 10.4531 37.9844 14.4062 Q37.9844 18.0625 35.5234 20.0156 Q33.0625 21.9688 24.7031 23.7812 L21.5781 24.5156 Q13.2344 26.2656 9.5234 29.9062 Q5.8125 33.5469 5.8125 39.8906 Q5.8125 47.6094 11.2812 51.8047 Q16.75 56 26.8125 56 Q31.7812 56 36.1797 55.2734 Q40.5781 54.5469 44.2812 53.0781 Z"
        /><glyph unicode="b" horiz-adv-x="63.476562" d="M48.6875 27.2969 Q48.6875 37.2031 44.6094 42.8438 Q40.5312 48.4844 33.4062 48.4844 Q26.2656 48.4844 22.1875 42.8438 Q18.1094 37.2031 18.1094 27.2969 Q18.1094 17.3906 22.1875 11.75 Q26.2656 6.1094 33.4062 6.1094 Q40.5312 6.1094 44.6094 11.75 Q48.6875 17.3906 48.6875 27.2969 ZM18.1094 46.3906 Q20.9531 51.2656 25.2734 53.6328 Q29.5938 56 35.5938 56 Q45.5625 56 51.7891 48.0938 Q58.0156 40.1875 58.0156 27.2969 Q58.0156 14.4062 51.7891 6.4922 Q45.5625 -1.4219 35.5938 -1.4219 Q29.5938 -1.4219 25.2734 0.9531 Q20.9531 3.3281 18.1094 8.2031 L18.1094 0 L9.0781 0 L9.0781 75.9844 L18.1094 75.9844 L18.1094 46.3906 Z"
        /><glyph unicode="A" horiz-adv-x="68.4082" d="M34.1875 63.1875 L20.7969 26.9062 L47.6094 26.9062 L34.1875 63.1875 ZM28.6094 72.9062 L39.7969 72.9062 L67.5781 0 L57.3281 0 L50.6875 18.7031 L17.8281 18.7031 L11.1875 0 L0.7812 0 L28.6094 72.9062 Z"
        /><glyph unicode="L" horiz-adv-x="55.71289" d="M9.8125 72.9062 L19.6719 72.9062 L19.6719 8.2969 L55.1719 8.2969 L55.1719 0 L9.8125 0 L9.8125 72.9062 Z"
        /><glyph unicode="I" horiz-adv-x="29.492188" d="M9.8125 72.9062 L19.6719 72.9062 L19.6719 0 L9.8125 0 L9.8125 72.9062 Z"
        /><glyph unicode="V" horiz-adv-x="68.4082" d="M28.6094 0 L0.7812 72.9062 L11.0781 72.9062 L34.1875 11.5312 L57.3281 72.9062 L67.5781 72.9062 L39.7969 0 L28.6094 0 Z"
        /><glyph unicode="O" horiz-adv-x="78.71094" d="M39.4062 66.2188 Q28.6562 66.2188 22.3359 58.2109 Q16.0156 50.2031 16.0156 36.375 Q16.0156 22.6094 22.3359 14.6016 Q28.6562 6.5938 39.4062 6.5938 Q50.1406 6.5938 56.4219 14.6016 Q62.7031 22.6094 62.7031 36.375 Q62.7031 50.2031 56.4219 58.2109 Q50.1406 66.2188 39.4062 66.2188 ZM39.4062 74.2188 Q54.7344 74.2188 63.9141 63.9375 Q73.0938 53.6562 73.0938 36.375 Q73.0938 19.1406 63.9141 8.8594 Q54.7344 -1.4219 39.4062 -1.4219 Q24.0312 -1.4219 14.8203 8.8359 Q5.6094 19.0938 5.6094 36.375 Q5.6094 53.6562 14.8203 63.9375 Q24.0312 74.2188 39.4062 74.2188 Z"
        /><glyph unicode="C" horiz-adv-x="69.82422" d="M64.4062 67.2812 L64.4062 56.8906 Q59.4219 61.5312 53.7812 63.8203 Q48.1406 66.1094 41.7969 66.1094 Q29.2969 66.1094 22.6562 58.4688 Q16.0156 50.8281 16.0156 36.375 Q16.0156 21.9688 22.6562 14.3281 Q29.2969 6.6875 41.7969 6.6875 Q48.1406 6.6875 53.7812 8.9844 Q59.4219 11.2812 64.4062 15.9219 L64.4062 5.6094 Q59.2344 2.0938 53.4453 0.3359 Q47.6562 -1.4219 41.2188 -1.4219 Q24.6562 -1.4219 15.1328 8.7109 Q5.6094 18.8438 5.6094 36.375 Q5.6094 53.9531 15.1328 64.0859 Q24.6562 74.2188 41.2188 74.2188 Q47.75 74.2188 53.5391 72.4844 Q59.3281 70.75 64.4062 67.2812 Z"
      /></font
    ></defs
    ><g style="fill:white; stroke:white;"
    ><rect x="0" y="0" width="1152" style="clip-path:url(#clipPath1); stroke:none;" height="648"
    /></g
    ><g style="fill:white; text-rendering:optimizeSpeed; color-rendering:optimizeSpeed; image-rendering:optimizeSpeed; shape-rendering:crispEdges; stroke:white; color-interpolation:sRGB;"
    ><rect x="0" width="1152" height="648" y="0" style="stroke:none;"
      /><path style="stroke:none;" d="M150 577 L1043 577 L1043 49 L150 49 Z"
    /></g
    ><g style="fill:rgb(38,38,38); text-rendering:geometricPrecision; image-rendering:optimizeQuality; color-rendering:optimizeQuality; stroke-linejoin:round; stroke:rgb(38,38,38); color-interpolation:linearRGB; stroke-width:0.6667;"
    ><line y2="577" style="fill:none;" x1="150.0033" x2="1042.9967" y1="577"
      /><line y2="568.0701" style="fill:none;" x1="163.3284" x2="163.3284" y1="577"
      /><line y2="568.0701" style="fill:none;" x1="296.6119" x2="296.6119" y1="577"
      /><line y2="568.0701" style="fill:none;" x1="429.8955" x2="429.8955" y1="577"
      /><line y2="568.0701" style="fill:none;" x1="563.1791" x2="563.1791" y1="577"
      /><line y2="568.0701" style="fill:none;" x1="696.4627" x2="696.4627" y1="577"
      /><line y2="568.0701" style="fill:none;" x1="829.7463" x2="829.7463" y1="577"
      /><line y2="568.0701" style="fill:none;" x1="963.0298" x2="963.0298" y1="577"
    /></g
    ><g transform="translate(163.3284,583.4)" style="font-size:18.6667px; fill:rgb(38,38,38); text-rendering:geometricPrecision; image-rendering:optimizeQuality; color-rendering:optimizeQuality; font-family:'SansSerif'; stroke:rgb(38,38,38); color-interpolation:linearRGB;"
    ><text x="-24" xml:space="preserve" y="18" style="stroke:none;"
      >2010</text
    ></g
    ><g transform="translate(296.6119,583.4)" style="font-size:18.6667px; fill:rgb(38,38,38); text-rendering:geometricPrecision; image-rendering:optimizeQuality; color-rendering:optimizeQuality; font-family:'SansSerif'; stroke:rgb(38,38,38); color-interpolation:linearRGB;"
    ><text x="-24" xml:space="preserve" y="18" style="stroke:none;"
      >2012</text
    ></g
    ><g transform="translate(429.8955,583.4)" style="font-size:18.6667px; fill:rgb(38,38,38); text-rendering:geometricPrecision; image-rendering:optimizeQuality; color-rendering:optimizeQuality; font-family:'SansSerif'; stroke:rgb(38,38,38); color-interpolation:linearRGB;"
    ><text x="-24" xml:space="preserve" y="18" style="stroke:none;"
      >2014</text
    ></g
    ><g transform="translate(563.1791,583.4)" style="font-size:18.6667px; fill:rgb(38,38,38); text-rendering:geometricPrecision; image-rendering:optimizeQuality; color-rendering:optimizeQuality; font-family:'SansSerif'; stroke:rgb(38,38,38); color-interpolation:linearRGB;"
    ><text x="-24" xml:space="preserve" y="18" style="stroke:none;"
      >2016</text
    ></g
    ><g transform="translate(696.4627,583.4)" style="font-size:18.6667px; fill:rgb(38,38,38); text-rendering:geometricPrecision; image-rendering:optimizeQuality; color-rendering:optimizeQuality; font-family:'SansSerif'; stroke:rgb(38,38,38); color-interpolation:linearRGB;"
    ><text x="-24" xml:space="preserve" y="18" style="stroke:none;"
      >2018</text
    ></g
    ><g transform="translate(829.7463,583.4)" style="font-size:18.6667px; fill:rgb(38,38,38); text-rendering:geometricPrecision; image-rendering:optimizeQuality; color-rendering:optimizeQuality; font-family:'SansSerif'; stroke:rgb(38,38,38); color-interpolation:linearRGB;"
    ><text x="-24" xml:space="preserve" y="18" style="stroke:none;"
      >2020</text
    ></g
    ><g transform="translate(963.0298,583.4)" style="font-size:18.6667px; fill:rgb(38,38,38); text-rendering:geometricPrecision; image-rendering:optimizeQuality; color-rendering:optimizeQuality; font-family:'SansSerif'; stroke:rgb(38,38,38); color-interpolation:linearRGB;"
    ><text x="-24" xml:space="preserve" y="18" style="stroke:none;"
      >2022</text
    ></g
    ><g transform="translate(596.5,607.7333)" style="font-size:20.5333px; fill:rgb(38,38,38); text-rendering:geometricPrecision; image-rendering:optimizeQuality; color-rendering:optimizeQuality; font-family:'SansSerif'; stroke:rgb(38,38,38); color-interpolation:linearRGB;"
    ><text x="-67" xml:space="preserve" y="20" style="stroke:none;"
      >election year</text
    ></g
    ><g style="fill:rgb(38,38,38); text-rendering:geometricPrecision; image-rendering:optimizeQuality; color-rendering:optimizeQuality; stroke-linejoin:round; stroke:rgb(38,38,38); color-interpolation:linearRGB; stroke-width:0.6667;"
    ><line y2="49" style="fill:none;" x1="150.0033" x2="150.0033" y1="577"
      /><line y2="577" style="fill:none;" x1="150.0033" x2="158.9355" y1="577"
      /><line y2="511" style="fill:none;" x1="150.0033" x2="158.9355" y1="511"
      /><line y2="445" style="fill:none;" x1="150.0033" x2="158.9355" y1="445"
      /><line y2="379" style="fill:none;" x1="150.0033" x2="158.9355" y1="379"
      /><line y2="313" style="fill:none;" x1="150.0033" x2="158.9355" y1="313"
      /><line y2="247" style="fill:none;" x1="150.0033" x2="158.9355" y1="247"
      /><line y2="181" style="fill:none;" x1="150.0033" x2="158.9355" y1="181"
      /><line y2="115" style="fill:none;" x1="150.0033" x2="158.9355" y1="115"
      /><line y2="49" style="fill:none;" x1="150.0033" x2="158.9355" y1="49"
    /></g
    ><g transform="translate(143.601,577)" style="font-size:18.6667px; fill:rgb(38,38,38); text-rendering:geometricPrecision; image-rendering:optimizeQuality; color-rendering:optimizeQuality; font-family:'SansSerif'; stroke:rgb(38,38,38); color-interpolation:linearRGB;"
    ><text x="-43" xml:space="preserve" y="6.5" style="stroke:none;"
      >-800</text
    ></g
    ><g transform="translate(143.601,511)" style="font-size:18.6667px; fill:rgb(38,38,38); text-rendering:geometricPrecision; image-rendering:optimizeQuality; color-rendering:optimizeQuality; font-family:'SansSerif'; stroke:rgb(38,38,38); color-interpolation:linearRGB;"
    ><text x="-43" xml:space="preserve" y="6.5" style="stroke:none;"
      >-600</text
    ></g
    ><g transform="translate(143.601,445)" style="font-size:18.6667px; fill:rgb(38,38,38); text-rendering:geometricPrecision; image-rendering:optimizeQuality; color-rendering:optimizeQuality; font-family:'SansSerif'; stroke:rgb(38,38,38); color-interpolation:linearRGB;"
    ><text x="-43" xml:space="preserve" y="6.5" style="stroke:none;"
      >-400</text
    ></g
    ><g transform="translate(143.601,379)" style="font-size:18.6667px; fill:rgb(38,38,38); text-rendering:geometricPrecision; image-rendering:optimizeQuality; color-rendering:optimizeQuality; font-family:'SansSerif'; stroke:rgb(38,38,38); color-interpolation:linearRGB;"
    ><text x="-43" xml:space="preserve" y="6.5" style="stroke:none;"
      >-200</text
    ></g
    ><g transform="translate(143.601,313)" style="font-size:18.6667px; fill:rgb(38,38,38); text-rendering:geometricPrecision; image-rendering:optimizeQuality; color-rendering:optimizeQuality; font-family:'SansSerif'; stroke:rgb(38,38,38); color-interpolation:linearRGB;"
    ><text x="-12" xml:space="preserve" y="6.5" style="stroke:none;"
      >0</text
    ></g
    ><g transform="translate(143.601,247)" style="font-size:18.6667px; fill:rgb(38,38,38); text-rendering:geometricPrecision; image-rendering:optimizeQuality; color-rendering:optimizeQuality; font-family:'SansSerif'; stroke:rgb(38,38,38); color-interpolation:linearRGB;"
    ><text x="-36" xml:space="preserve" y="6.5" style="stroke:none;"
      >200</text
    ></g
    ><g transform="translate(143.601,181)" style="font-size:18.6667px; fill:rgb(38,38,38); text-rendering:geometricPrecision; image-rendering:optimizeQuality; color-rendering:optimizeQuality; font-family:'SansSerif'; stroke:rgb(38,38,38); color-interpolation:linearRGB;"
    ><text x="-36" xml:space="preserve" y="6.5" style="stroke:none;"
      >400</text
    ></g
    ><g transform="translate(143.601,115)" style="font-size:18.6667px; fill:rgb(38,38,38); text-rendering:geometricPrecision; image-rendering:optimizeQuality; color-rendering:optimizeQuality; font-family:'SansSerif'; stroke:rgb(38,38,38); color-interpolation:linearRGB;"
    ><text x="-36" xml:space="preserve" y="6.5" style="stroke:none;"
      >600</text
    ></g
    ><g transform="translate(143.601,49)" style="font-size:18.6667px; fill:rgb(38,38,38); text-rendering:geometricPrecision; image-rendering:optimizeQuality; color-rendering:optimizeQuality; font-family:'SansSerif'; stroke:rgb(38,38,38); color-interpolation:linearRGB;"
    ><text x="-36" xml:space="preserve" y="6.5" style="stroke:none;"
      >800</text
    ></g
    ><g style="stroke-linecap:butt; fill:rgb(38,38,38); text-rendering:geometricPrecision; image-rendering:optimizeQuality; color-rendering:optimizeQuality; stroke-linejoin:round; stroke:rgb(38,38,38); color-interpolation:linearRGB; stroke-width:0.6667;"
    ><line y2="313" style="fill:none;" x1="150.0033" x2="1042.9967" y1="313"
    /></g
    ><g style="fill:rgb(0,114,189); text-rendering:optimizeSpeed; color-rendering:optimizeSpeed; image-rendering:optimizeSpeed; shape-rendering:crispEdges; stroke:rgb(0,114,189); color-interpolation:sRGB;"
    ><path style="stroke:none;" d="M203.3118 313 L203.3118 569.74 L256.6285 569.74 L256.6285 313 ZM269.9536 313 L269.9536 426.19 L323.2703 426.19 L323.2703 313 ZM336.5954 313 L336.5954 319.6 L389.9121 319.6 L389.9121 313 ZM456.5539 313 L456.5539 166.81 L403.2372 166.81 L403.2372 313 ZM523.1957 313 L523.1957 75.4 L469.879 75.4 L469.879 313 ZM536.5208 313 L536.5208 328.51 L589.8375 328.51 L589.8375 313 ZM656.4792 313 L656.4792 64.84 L603.1625 64.84 L603.1625 313 ZM669.8043 313 L669.8043 392.53 L723.121 392.53 L723.121 313 ZM736.4461 313 L736.4461 367.45 L789.7628 367.45 L789.7628 313 ZM803.088 313 L803.088 330.16 L856.4046 330.16 L856.4046 313 ZM869.7297 313 L869.7297 333.13 L923.0464 333.13 L923.0464 313 ZM936.3715 313 L936.3715 534.1 L989.6882 534.1 L989.6882 313 Z"
    /></g
    ><g style="text-rendering:geometricPrecision; stroke-width:0.6667; color-interpolation:linearRGB; color-rendering:optimizeQuality; stroke-linecap:butt; image-rendering:optimizeQuality;"
    ><path d="M203.3118 313 L203.3118 569.74 L256.6285 569.74 L256.6285 313 Z" style="fill:none; fill-rule:evenodd;"
      /><path d="M269.9536 313 L269.9536 426.19 L323.2703 426.19 L323.2703 313 Z" style="fill:none; fill-rule:evenodd;"
      /><path d="M336.5954 313 L336.5954 319.6 L389.9121 319.6 L389.9121 313 Z" style="fill:none; fill-rule:evenodd;"
      /><path d="M403.2372 313 L403.2372 166.81 L456.5539 166.81 L456.5539 313 Z" style="fill:none; fill-rule:evenodd;"
      /><path d="M469.879 313 L469.879 75.4 L523.1957 75.4 L523.1957 313 Z" style="fill:none; fill-rule:evenodd;"
      /><path d="M536.5208 313 L536.5208 328.51 L589.8375 328.51 L589.8375 313 Z" style="fill:none; fill-rule:evenodd;"
      /><path d="M603.1625 313 L603.1625 64.84 L656.4792 64.84 L656.4792 313 Z" style="fill:none; fill-rule:evenodd;"
      /><path d="M669.8043 313 L669.8043 392.53 L723.121 392.53 L723.121 313 Z" style="fill:none; fill-rule:evenodd;"
      /><path d="M736.4461 313 L736.4461 367.45 L789.7628 367.45 L789.7628 313 Z" style="fill:none; fill-rule:evenodd;"
      /><path d="M803.088 313 L803.088 330.16 L856.4046 330.16 L856.4046 313 Z" style="fill:none; fill-rule:evenodd;"
      /><path d="M869.7297 313 L869.7297 333.13 L923.0464 333.13 L923.0464 313 Z" style="fill:none; fill-rule:evenodd;"
      /><path d="M936.3715 313 L936.3715 534.1 L989.6882 534.1 L989.6882 313 Z" style="fill:none; fill-rule:evenodd;"
      /><line x1="529.8582" x2="529.8582" y1="577" style="fill:none; stroke-linejoin:round; stroke:blue;" y2="49"
      /><line x1="796.4254" x2="796.4254" y1="577" style="fill:none; stroke-linejoin:round; stroke:red;" y2="49"
    /></g
    ><g style="fill:white; text-rendering:optimizeSpeed; color-rendering:optimizeSpeed; image-rendering:optimizeSpeed; shape-rendering:crispEdges; stroke:white; color-interpolation:sRGB;"
    ><path style="stroke:none;" d="M1032 125 L1032 60 L815 60 L815 125 Z"
    /></g
    ><g transform="translate(862,72)" style="font-size:16.8px; text-rendering:geometricPrecision; color-rendering:optimizeQuality; image-rendering:optimizeQuality; font-family:'SansSerif'; color-interpolation:linearRGB;"
    ><text x="0" xml:space="preserve" y="6" style="stroke:none;"
      >Absolute Difference</text
    ></g
    ><g style="fill:rgb(0,114,189); text-rendering:optimizeSpeed; color-rendering:optimizeSpeed; image-rendering:optimizeSpeed; shape-rendering:crispEdges; stroke:rgb(0,114,189); color-interpolation:sRGB;"
    ><path style="stroke:none;" d="M859 79.5 L859 64.5 L819 64.5 L819 79.5 Z"
    /></g
    ><g style="text-rendering:geometricPrecision; stroke-width:0.6667; color-interpolation:linearRGB; color-rendering:optimizeQuality; stroke-linecap:butt; image-rendering:optimizeQuality;"
    ><path d="M819 79.5 L819 64.5 L859 64.5 L859 79.5 Z" style="fill:none; fill-rule:evenodd;"
    /></g
    ><g transform="translate(862,92.5)" style="font-size:16.8px; text-rendering:geometricPrecision; color-rendering:optimizeQuality; image-rendering:optimizeQuality; font-family:'SansSerif'; color-interpolation:linearRGB;"
    ><text x="0" xml:space="preserve" y="6" style="stroke:none;"
      >Leenstelsel</text
    ></g
    ><g style="stroke-linecap:butt; fill:blue; text-rendering:geometricPrecision; image-rendering:optimizeQuality; color-rendering:optimizeQuality; stroke-linejoin:round; stroke:blue; color-interpolation:linearRGB; stroke-width:0.6667;"
    ><line y2="92.5" style="fill:none;" x1="819" x2="859" y1="92.5"
    /></g
    ><g transform="translate(862,113)" style="font-size:16.8px; text-rendering:geometricPrecision; color-rendering:optimizeQuality; image-rendering:optimizeQuality; font-family:'SansSerif'; color-interpolation:linearRGB;"
    ><text x="0" xml:space="preserve" y="6" style="stroke:none;"
      >COVID</text
    ></g
    ><g style="stroke-linecap:butt; fill:red; text-rendering:geometricPrecision; image-rendering:optimizeQuality; color-rendering:optimizeQuality; stroke-linejoin:round; stroke:red; color-interpolation:linearRGB; stroke-width:0.6667;"
    ><line y2="113" style="fill:none;" x1="819" x2="859" y1="113"
      /><path d="M815 125 L815 60 L1032 60 L1032 125 Z" style="fill:none; fill-rule:evenodd; stroke:rgb(38,38,38); stroke-linejoin:miter;"
    /></g
  ></g
></svg
>
